WIELERS MONIKA,,,,,,,,,,,,,,,,,,,,,,,,,,,,
BRUCKMAN DE RENSTROM PAWEL,,,,,,,,,,,,,,,,,,,,,,,,,,,,
KACZMARSKA ANNA,,,,,,,,,,,,,,,,,,,,,,,,,,,,
WOLTER MARCIN,,,,,,,,,,,,,,,,,,,,,,,,,,,,
KORDAS KOSTAS,,,,,,,,,,,,,,,,,,,,,,,,,,,,
CORSO RADU ALINA,Yes,Yes,Yes,Yes,,,,,,,,,,,,,,,,,,,,,,,,
KIRK JULIE ,,,,,,,,,,,,,,,,,,,,,,,,,,,,
MIDDLETON ROBIN,,,,,,,,,,,,,,,,,,,,,,,,,,,,
ZHUANG XUAI,,,,,,,,,,,,,,,,,,,,,,,,,,,,
RIU IMMA,,,,,,,,,,,,,,,,,,,,,,,,,,,,
GAGLIARDI GUIDO,,,,,,,,,,,,,,,,,,,,,,,,,,,,
STRIZENEC PAVOL,,,,,,,,,,,,,,,,,,,,,,,,,,,,
SUTTON MARK,,,,,,,,,,,,,,,,,,,,,,,,,,,,
WARBURTON ANDREAS,,,,,,,,,,,,,,,,,,,,,,,,,,,,
CASADO LECHUGA PILAR,,,,,,,,,,,,,,,,,,,,,,,,,,,,
MINCER ALLEN IRVING,,,,,,,,,,,,,,,,,,,,,,,,,,,,
NEMETHY PETER,,,,,,,,,,,,,,,,,,,,,,,,,,,,
DE SANCTIS UMBERTO,,,,,,,,,,,,,,,,,,,,,,,,,,,,
KAZAROV ANDREI,,,,,,,,,,,,,,,,,,,,,,,,,,,,
ZHU HONGBO,,,,,,,,,,,,,,,,,,,,,,,,,,,,
LOVE JEREMY ROBERT,,,,,,,,,,,,,,,,,,,,,,,,,,,,
OHM CHRISTIAN,,,,,,,,,,,,,,,,,,,,,,,,,,,,
WHALEN KATE,,,,,,,,,,,,,,,,,,,,,,,,,,,,
SCHWIENHORST REINHARD,,,,,,,,,,,,,,,,,,,,,,,,,,,,
IBRAGIMOV ISKANDER,,,,,,,,,,,,,,,,,,,,,,,,,,,,
MOA TORBJORN,,,,,,,,,,,,,,,,,,,,,,,,,,,,
STOCKTON MARK,,,,,,,,,,,,,,,,,,,,,,,,,,,,
WOZNIAK KRZYSZTOF WIESLAW,,,,,,,,,,,,,,,,,,,,,,,,,,,,
KUEHN SUSANNE,,,,,,,,,,,,,,,,,,,,,,,,,,,,
SOUSA MARIO JOSE,,,,,,,,,,,,,,,,,,,,,,,,,,,,
ALONSO FRANCISCO,,,,,,,,,,,,,,,,,,,,,,,,,,,,
SAWYER CRAIG ANTHONY,,,,,,,,,,,,,,,,,,,,,,,,,,,,
PACHAL KATHERINE,,,,,,,,,,,,,,,,,,,,,,,,,,,,
ABULAITI YIMING,,,,,,,,,,,,,,,,,,,,,,,,,,,,
BRET CANO MARC,,,,,,,,,,,,,,,,,,,,,,,,,,,,
SMART BEN HARRY,,,,,,,,,,,,,,,,,,,,,,,,,,,,
BALEK PETR,,,,,,,,,,,,,,,,,,,,,,,,,,,,
SFORZA FEDERICO,,,,,,,,,,,,,,,,,,,,,,,,,,,,
NELLIST CLARA,,,,,,,,,,,,,,,,,,,,,,,,,,,,
MORGENSTERN MARCUS MATTHIAS,,,,,,,,,,,,,,,,,,,,,,,,,,,,
LANG VALERIE,,,,,,,,,,,,,,,,,,,,,,,,,,,,
FAROOQUE TRISHA,,,,,,,,,,,,,,,,,,,,,,,,,,,,
GUTSCHOW CHRISTIAN,,,,,,,,,,,,,,,,,,,,,,,,,,,,
LEISOS ANTONIOS,,,,,,,,,,,,,,,,,,,,,,,,,,,,
ALCONADA JOSEFINA,,,,,,,,,,,,,,,,,,,,,,,,,,,,
DONSZELMANN MARK,,,,,,,,,,,,,,,,,,,,,,,,,,,,
ZAKHARCHUK NATALIIA,,,,,,,,,,,,,,,,,,,,,,,,,,,,
ALEXANDRE DIDIER,,,,,,,,,,,,,,,,,,,,,,,,,,,,
KALDERON WILL,,,,,,,,,,,,,,,,,,,,,,,,,,,,
BASALAEV ARTEM,,,,,,,,,,,,,,,,,,,,,,,,,,,,
ZHANG RUI,,,,,,,,,,,,,,,,,,,,,,,,,,,,
GAO YANYAN,,,,,,,,,,,,,,,,,,,,,,,,,,,,
KLASSEN MARTIN,,,,,,,,,,,,,,,,,,,,,,,,,,,,
LERNER GIUSEPPE,,,,,,,,,,,,,,,,,,,,,,,,,,,,
BORGNA LUCAS SANTIAGO,,,,,,,,,,,,,,,,,,,,,,,,,,,,
DANERI MARIA FLORENCIA,,,,,,,,,,,,,,,,,,,,,,,,,,,,
GADOW PAUL PHILIPP,,,,,,,,,,,,,,,,,,,,,,,,,,,,
WAHLBERG HERNAN PABLO,,,,,,,,,,,,,,,,,,,,,,,,,,,,
TROFYMOV ARTUR,,,,,,,,,,,,,,,,,,,,,,,,,,,,
WANG WENXIAO,,,,,,,,,,,,,,,,,,,,,,,,,,,,
SAIMPERT MATTHIAS,,,,,,,,,,,,,,,,,,,,,,,,,,,,
BONAVENTURA MATIAS ALEJANDRO,,,,,,,,,,,,,,,,,,,,,,,,,,,,
FENTON MICHAEL JAMES,,,,,,,,,,,,,,,,,,,,,,,,,,,,
BANDYOPADHYAY ANJISHNU,,,,,,,,,,,,,,,,,,,,,,,,,,,,
GESSINGER-BEFURT PAUL,,,,,,,,,,,,,,,,,,,,,,,,,,,,
SESSA MARCO,,,,,,,,,,,,,,,,,,,,,,,,,,,,
RAINE JOHNNY,,,,,,,,,,,,,,,,,,,,,,,,,,,,
LIN KUAN-YU,,,,,,,,,,,,,,,,,,,,,,,,,,,,
BURCH TYLER JAMES,,,,,,,,,,,,,,,,,,,,,,,,,,,,
MAJ KLAUDIA,,,,,,,,,,,,,,,,,,,,,,,,,,,,
ZHAO YONGKE,,,,,,,,,,,,,,,,,,,,,,,,,,,,
ORELLANA GONZALO ENRIQUE,,,,,,,,,,,,,,,,,,,,,,,,,,,,
MYERS AVA ANNE,,,,,,,,,,,,,,,,,,,,,,,,,,,,
KHODA ELHAM E,,,,,,,,,,,,,,,,,,,,,,,,,,,,
CALLEA GIUSEPPE,,,,,,,,,,,,,,,,,,,,,,,,,,,,
MARCECA GINO,,,,,,,,,,,,,,,,,,,,,,,,,,,,
LU MIAORAN,,,,,,,,,,,,,,,,,,,,,,,,,,,,
BALUNAS WILLIAM KEATON,,,,,,,,,,,,,,,,,,,,,,,,,,,,
POGGI RICCARDO,,,,,,,,,,,,,,,,,,,,,,,,,,,,
HORYN LESYA ANNA,,,,,,,,,,,,,,,,,,,,,,,,,,,,
SUCHEK STANISLAV,,,,,,,,,,,,,,,,,,,,,,,,,,,,
MARANTIS ALEXANDROS,,,,,,,,,,,,,,,,,,,,,,,,,,,,
XIOTIDIS IOANNIS,,,,,,,,,,,,,,,,,,,,,,,,,,,,
MAZNAS IOANNIS,,,,,,,,,,,,,,,,,,,,,,,,,,,,
ANTRIM DANIEL JOSEPH,,,,,,,,,,,,,,,,,,,,,,,,,,,,
SKORDA ELENI,,,,,,,,,,,,,,,,,,,,,,,,,,,,
GIULI FRANCESCO,,,,,,,,,,,,,,,,,,,,,,,,,,,,
VARNI CARLO,,,,,,,,,,,,,,,,,,,,,,,,,,,,
WOLLRATH JULIAN,,,,,,,,,,,,,,,,,,,,,,,,,,,,
CHOW EDWIN,,,,,,,,,,,,,,,,,,,,,,,,,,,,
SCHILDGEN LARA KATHARINA,,,,,,,,,,,,,,,,,,,,,,,,,,,,
DAMP JOHANNES FREDERIC,,,,,,,,,,,,,,,,,,,,,,,,,,,,
MOGG PHILIPP,,,,,,,,,,,,,,,,,,,,,,,,,,,,
SHAW SAVANNA,,,,,,,,,,,,,,,,,,,,,,,,,,,,
KHANDOGA MYKOLA,,,,,,,,,,,,,,,,,,,,,,,,,,,,
HOYA JOAQUIN,,,,,,,,,,,,,,,,,,,,,,,,,,,,
FARINA EDOARDO MARIA,,,,,,,,,,,,,,,,,,,,,,,,,,,,
BARTELS FALK,,,,,,,,,,,,,,,,,,,,,,,,,,,,
NAPOLITANO FABRIZIO,,,,,,,,,,,,,,,,,,,,,,,,,,,,
FABIANI VERONICA,,,,,,,,,,,,,,,,,,,,,,,,,,,,
MOSKALETS TETIANA,,,,,,,,,,,,,,,,,,,,,,,,,,,,
SAHA SHREYA,,,,,,,,,,,,,,,,,,,,,,,,,,,,
QUEITSCH-MAITLAND MICHAELA,,,,,,,,,,,,,,,,,,,,,,,,,,,,
WANOTAYAROJ CHAOWAROJ,,,,,,,,,,,,,,,,,,,,,,,,,,,,
HEATH MATTHEW PETER,,,,,,,,,,,,,,,,,,,,,,,,,,,,
LINDON JACK,,,,,,,,,,,,,,,,,,,,,,,,,,,,
DE BEURS MARCUS,,,,,,,,,,,,,,,,,,,,,,,,,,,,
TRESOLDI FABIO,,,,,,,,,,,,,,,,,,,,,,,,,,,,
ATMANI HICHAM,,,,,,,,,,,,,,,,,,,,,,,,,,,,
TSIRIGOTIS APOSTOLOS,,,,,,,,,,,,,,,,,,,,,,,,,,,,
WINKELS EMMA,,,,,,,,,,,,,,,,,,,,,,,,,,,,
PHAM JONI,,,,,,,,,,,,,,,,,,,,,,,,,,,,
THOMAS DAVID WILLIAM,,,,,,,,,,,,,,,,,,,,,,,,,,,,
DZIEDZIC BARTOSZ SEBASTIAN,,,,,,,,,,,,,,,,,,,,,,,,,,,,
MCNICOL CHRISTOPHER JOHN,,,,,,,,,,,,,,,,,,,,,,,,,,,,
BOYE DIALLO,,,,,,,,,,,,,,,,,,,,,,,,,,,,
HONLE ANDREAS,,,,,,,,,,,,,,,,,,,,,,,,,,,,
LIU BINGXUAN,,,,,,,,,,,,,,,,,,,,,,,,,,,,
GAMBOA GONI RODRIGO,,,,,,,,,,,,,,,,,,,,,,,,,,,,
PORTILLO QUINTERO DILIA MARIA,,,,,,,,,,,,,,,,,,,,,,,,,,,,
PROFFITT MASON,,,,,,,,,,,,,,,,,,,,,,,,,,,,
FALKE SASKIA,,,,,,,,,,,,,,,,,,,,,,,,,,,,
WANG PEILONG,,,,,,,,,,,,,,,,,,,,,,,,,,,,
THORPE EDWARD JAMES,,,,,,,,,,,,,,,,,,,,,,,,,,,,
D'ONOFRIO ADELINA,,,,,,,,,,,,,,,,,,,,,,,,,,,,
SOTTOCORNOLA SIMONE,,,,,,,,,,,,,,,,,,,,,,,,,,,,
BAKKER PEPIJN JOHANNES,,,,,,,,,,,,,,,,,,,,,,,,,,,,
SULLIVAN MATTHEW JAMES,,,,,,,,,,,,,,,,,,,,,,,,,,,,
GRANDI MARIO,,,,,,,,,,,,,,,,,,,,,,,,,,,,
ALDERWEIRELDT SARA,,,,,,,,,,,,,,,,,,,,,,,,,,,,
KAPHLE STEPHAN,,,,,,,,,,,,,,,,,,,,,,,,,,,,
GASIOROWSKI SEAN JOSEPH,,,,,,,,,,,,,,,,,,,,,,,,,,,,
HENKELMANN LARS,,,,,,,,,,,,,,,,,,,,,,,,,,,,
ZHENG ZHI,,,,,,,,,,,,,,,,,,,,,,,,,,,,
SAUERBURGER FRANK,,,,,,,,,,,,,,,,,,,,,,,,,,,,
VECCHIO VALENTINA,,,,,,,,,,,,,,,,,,,,,,,,,,,,
KUPRASH OLEG,,,,,,,,,,,,,,,,,,,,,,,,,,,,
NG YING WUN YVONNE,,,,,,,,,,,,,,,,,,,,,,,,,,,,
VALENTE MARCO,,,,,,,,,,,,,,,,,,,,,,,,,,,,
STEINHEBEL AMANDA,,,,,,,,,,,,,,,,,,,,,,,,,,,,
MICHETTI MICHELE,,,,,,,,,,,,,,,,,,,,,,,,,,,,
LE GOFF FABRICE,,,,,,,,,,,,,,,,,,,,,,,,,,,,
SPIEKER THOMAS MALTE,,,,,,,,,,,,,,,,,,,,,,,,,,,,
GIL DAMIAN TOMASZ,,,,,,,,,,,,,,,,,,,,,,,,,,,,
ABED ABUD ADAM,No,No,,,,,,,,,,,,,,,,,,,,,,,,,,
TAKEVA EMILY PETROVA,,,,,,,,,,,,,,,,,,,,,,,,,,,,
OTT PHILIPP SEBASTIAN,,,,,,,,,,,,,,,,,,,,,,,,,,,,
CANESSE AURIANE,,,,,,,,,,,,,,,,,,,,,,,,,,,,
JAMIESON JONATHAN,,,,,,,,,,,,,,,,,,,,,,,,,,,,
CHARMAN THOMAS PAUL,,,,,,,,,,,,,,,,,,,,,,,,,,,,
O'KEEFE MICHAEL WILLIAM,,,,,,,,,,,,,,,,,,,,,,,,,,,,
ZAHREDDINE JAD,,,,,,,,,,,,,,,,,,,,,,,,,,,,
BOOTH CALLUM DALE,,,,,,,,,,,,,,,,,,,,,,,,,,,,
JASPAN ADAM ELLIOTT,,,,,,,,,,,,,,,,,,,,,,,,,,,,
BAUER PATRICK,,,,,,,,,,,,,,,,,,,,,,,,,,,,
MANDALIA JESAL,,,,,,,,,,,,,,,,,,,,,,,,,,,,
OLIVER JAKE,,,,,,,,,,,,,,,,,,,,,,,,,,,,
LAWLOR SEAN DEAN,,,,,,,,,,,,,,,,,,,,,,,,,,,,
AHMED WALEED SYED,,,,,,,,,,,,,,,,,,,,,,,,,,,,
MENZEL CONNOR HARRISON,,,,,,,,,,,,,,,,,,,,,,,,,,,,
